Plotly plots
…
Scatterplot of Café/Coffee/Tea shops in Manhattan by
Latitude/Longitude and inspection scores.

Higher scores incurred more regulation violations (food handling,
food temperature, personal hygiene of restaurant workers, and vermin
control).

data(rest_inspec)

rest_inspec |> 
  janitor::clean_names()

## # A tibble: 393,130 × 26
##       camis dba          boro  building street zipcode phone cuisine_description
##       <dbl> <chr>        <chr> <chr>    <chr>    <dbl> <chr> <chr>              
##  1 41308044 RELISH CONC… Manh… 0        INSID…   10000 2127… American           
##  2 41308044 RELISH CONC… Manh… 0        INSID…   10000 2127… American           
##  3 41308044 RELISH CONC… Manh… 0        INSID…   10000 2127… American           
##  4 50038906 LE PAIN QUO… Manh… NKA      CENTR…   10000 2123… French             
##  5 41308044 RELISH CONC… Manh… 0        INSID…   10000 2127… American           
##  6 50038906 LE PAIN QUO… Manh… NKA      CENTR…   10000 2123… French             
##  7 41308044 RELISH CONC… Manh… 0        INSID…   10000 2127… American           
##  8 41308044 RELISH CONC… Manh… 0        INSID…   10000 2127… American           
##  9 50038906 LE PAIN QUO… Manh… NKA      CENTR…   10000 2123… French             
## 10 50038906 LE PAIN QUO… Manh… NKA      CENTR…   10000 2123… French             
## # ℹ 393,120 more rows
## # ℹ 18 more variables: inspection_date <dttm>, action <chr>,
## #   violation_code <chr>, violation_description <chr>, critical_flag <chr>,
## #   score <dbl>, record_date <dttm>, inspection_type <chr>, latitude <dbl>,
## #   longitude <dbl>, community_board <dbl>, council_district <chr>,
## #   census_tract <chr>, bin <dbl>, bbl <dbl>, nta <chr>, grade <chr>,
## #   grade_date <dttm>
…
